   1    1 bin
   2    2 outtest2.txt
   3    3 outtest1.txt
   4    4 test.html
   5    5 ls.txt
   6    6 number
   7    7 setenv
   8    8 
   9    9 Test
  10   10 This is a test program
  11   11 for ras.
  12   12 
  13   13 
  14   14 Test
  15   15 This is a test program
  16   16 for ras.
  17   17 
  18    1    1 <!test.html>
  19    2    2 <TITLE>Test<TITLE>
  20    3    3 <BODY>This is a <b>test</b> program
  21    4    4 for ras.
  22    5    5 </BODY>
  23    1    1 bin
  24    2    2 demo3_out1.txt
  25    3    3 outtest2.txt
  26    4    4 outtest1.txt
  27    5    5 test.html
  28    6    6 ls.txt
  29    7    7 number
  30    8    8 setenv
